%YAML 1.1
%TAG !u! tag:unity3d.com,2011:
--- !u!114 &11400000
MonoBehaviour:
  m_ObjectHideFlags: 0
  m_CorrespondingSourceObject: {fileID: 0}
  m_PrefabInstance: {fileID: 0}
  m_PrefabAsset: {fileID: 0}
  m_GameObject: {fileID: 0}
  m_Enabled: 1
  m_EditorHideFlags: 0
  m_Script: {fileID: 11500000, guid: ab10b9b8da5a849c99080ea0ba2ab31e, type: 3}
  m_Name: SO_Answer_Database
  m_EditorClassIdentifier: 
  Datas:
    m_keys: 0100000002000000030000000400000005000000
    m_values:
    - data:
      - {fileID: 11400000, guid: e2ec4df661d93452f823e4c9eee4cd71, type: 2}
      - {fileID: 11400000, guid: a0eca474e6f65448eb09137fa099d695, type: 2}
      - {fileID: 11400000, guid: 39e665b4e4e614b249aaa5aec01014b9, type: 2}
    - data:
      - {fileID: 11400000, guid: 3bb57dbfc93654a12a549a7a902085c6, type: 2}
      - {fileID: 11400000, guid: 17c4d729f1bb14ced96ca057c2a1790a, type: 2}
      - {fileID: 11400000, guid: e24e79e697dd94c3a92e3711acba0e6f, type: 2}
    - data:
      - {fileID: 11400000, guid: 29748ccf707fe4b2d92fe9897be72ff0, type: 2}
      - {fileID: 11400000, guid: 70787b60ac01e460ea243666d8761e8f, type: 2}
      - {fileID: 11400000, guid: bae64a153afbd4583910cbd6484a7ff1, type: 2}
    - data:
      - {fileID: 11400000, guid: b805949664582437e9146ff1d8e3d216, type: 2}
      - {fileID: 11400000, guid: 405fbc287f6db42f78660b70754b06b3, type: 2}
      - {fileID: 11400000, guid: bdbb08e55b2534ee3b9a4249acf2c011, type: 2}
    - data:
      - {fileID: 11400000, guid: 9d3815e5a7056435998483abbcc9a7af, type: 2}
      - {fileID: 11400000, guid: a74b13e0fa6ae445294532d73ea322ea, type: 2}
      - {fileID: 11400000, guid: e7233178d3dfd48b8a3705a13a0fff73, type: 2}
