%YAML 1.1
%TAG !u! tag:unity3d.com,2011:
--- !u!114 &11400000
MonoBehaviour:
  m_ObjectHideFlags: 0
  m_CorrespondingSourceObject: {fileID: 0}
  m_PrefabInstance: {fileID: 0}
  m_PrefabAsset: {fileID: 0}
  m_GameObject: {fileID: 0}
  m_Enabled: 1
  m_EditorHideFlags: 0
  m_Script: {fileID: 11500000, guid: b833b4f343b1640f7964af7d45fe6ea9, type: 3}
  m_Name: SO_Dialogue_Donkey_R4_react
  m_EditorClassIdentifier: 
  Id: R4_react
  Message: "\u5187\u5566\u5187\u5566\uFF5E\u54A9\u90FD\u5187\u5566\uFF5E\uFF5E"
  EnglishMessage: It's over...it's all over now...
  AnimationClip: M
  SoundId: event:/M
  ReactAnimationClip: Q
