%YAML 1.1
%TAG !u! tag:unity3d.com,2011:
--- !u!114 &11400000
MonoBehaviour:
  m_ObjectHideFlags: 0
  m_CorrespondingSourceObject: {fileID: 0}
  m_PrefabInstance: {fileID: 0}
  m_PrefabAsset: {fileID: 0}
  m_GameObject: {fileID: 0}
  m_Enabled: 1
  m_EditorHideFlags: 0
  m_Script: {fileID: 11500000, guid: b833b4f343b1640f7964af7d45fe6ea9, type: 3}
  m_Name: SO_Dialogue_Donkey_R1_react
  m_EditorClassIdentifier: 
  Id: R1_react
  Message: "\u6211\u90FD\u5514\u4FC2\u8B1B\u5462\u6A23\uFF01\uFF01"
  EnglishMessage: That's not what I meant!!
  AnimationClip: D
  SoundId: event:/D
  ReactAnimationClip: P
